Data Science for a Changing Planet - 6 Intro to dataframes
…
How would you extract the entire 5th column?

Solution

There are quite a few ways to do this:

you can use indices by number (as we have done up until this point)

instead of index numbers you can use the column name

Here are two options using indices:

catch[, 1]

# A tibble: 2,325 × 1
   Site       
   <chr>      
 1 Aransas_Bay
 2 Aransas_Bay
 3 Aransas_Bay
 4 Aransas_Bay
 5 Aransas_Bay
 6 Aransas_Bay
 7 Aransas_Bay
 8 Aransas_Bay
 9 Aransas_Bay
10 Aransas_Bay
# ℹ 2,315 more rows

catch[1]

# A tibble: 2,325 × 1
   Site       
   <chr>      
 1 Aransas_Bay
 2 Aransas_Bay
 3 Aransas_Bay
 4 Aransas_Bay
 5 Aransas_Bay
 6 Aransas_Bay
 7 Aransas_Bay
 8 Aransas_Bay
 9 Aransas_Bay
10 Aransas_Bay
# ℹ 2,315 more rows

Instead of using indices you can also call their column names directly - both of these options will return a data.frame.

catch["Site"]

# A tibble: 2,325 × 1
   Site       
   <chr>      
 1 Aransas_Bay
 2 Aransas_Bay
 3 Aransas_Bay
 4 Aransas_Bay
 5 Aransas_Bay
 6 Aransas_Bay
 7 Aransas_Bay
 8 Aransas_Bay
 9 Aransas_Bay
10 Aransas_Bay
# ℹ 2,315 more rows

catch[, "Site"]

# A tibble: 2,325 × 1
   Site       
   <chr>      
 1 Aransas_Bay
 2 Aransas_Bay
 3 Aransas_Bay
 4 Aransas_Bay
 5 Aransas_Bay
 6 Aransas_Bay
 7 Aransas_Bay
 8 Aransas_Bay
 9 Aransas_Bay
10 Aransas_Bay
# ℹ 2,315 more rows
…
